dump.vcd
$date
	Thu May 13 00:59:34 2021
$end
$version
	Icarus Verilog
$end
$timescale
	1s
$end
$scope module tailights_tb $end
$var wire 6 ! lights [5:0] $end
$var reg 1 " brake $end
$var reg 1 # clk $end
$var reg 1 $ dimclk $end
$var reg 1 % hazard $end
$var reg 1 & left $end
$var reg 1 ' right $end
$var reg 1 ( rst $end
$var reg 1 ) runlight $end
$scope module ctl $end
$var wire 1 " brake $end
$var wire 1 # clk $end
$var wire 1 $ dimclk $end
$var wire 1 % hazard $end
$var wire 1 & left $end
$var wire 1 ' right $end
$var wire 1 ( rst $end
$var wire 1 ) runlight $end
$var wire 6 * lights [5:0] $end
$var reg 2 + ls [1:0] $end
$var reg 2 , lsNext [1:0] $end
$var reg 6 - pattern [5:0] $end
$var reg 2 . rs [1:0] $end
$var reg 2 / rsNext [1:0] $end
$scope module dim $end
$var wire 1 $ dim_clk $end
$var wire 6 0 pattern [5:0] $end
$var wire 1 ) run_light $end
$var reg 6 1 out [5:0] $end
$upscope $end
$upscope $end
$upscope $end
$enddefinitions $end
#0
$dumpvars
b0 1
b0 0
b0 /
b0 .
b0 -
b0 ,
b0 +
b0 *
0)
1(
0'
0&
0%
1$
1#
0"
b0 !
$end
#1
0$
#2
1$
#3
0$
#4
1$
#5
0$
0#
#6
1$
#7
0$
#8
1$
#9
0$
#10
1$
1#
#11
0$
#12
1$
#13
0$
#14
1$
#15
0$
0#
#16
1$
#17
0$
#18
1$
#19
0$
#20
b100 -
b100 0
b1 +
b10 ,
1$
1#
1&
0(
#21
0$
#22
b100 !
b100 *
b100 1
1$
#23
0$
#24
1$
#25
0$
0#
#26
1$
#27
0$
#28
1$
#29
0$
#30
b11 ,
b110 -
b110 0
b10 +
1$
1#
#31
0$
#32
b110 !
b110 *
b110 1
1$
#33
0$
#34
1$
#35
0$
0#
#36
1$
#37
0$
#38
1$
#39
0$
#40
b0 ,
b111 -
b111 0
b11 +
1$
1#
#41
0$
#42
b111 !
b111 *
b111 1
1$
#43
0$
#44
1$
#45
0$
0#
#46
1$
#47
0$
#48
1$
#49
0$
#50
b1 ,
b0 -
b0 0
b0 +
1$
1#
#51
0$
#52
b0 !
b0 *
b0 1
1$
#53
0$
#54
1$
#55
0$
0#
#56
1$
#57
0$
#58
1$
#59
0$
#60
b1000 -
b1000 0
b1 .
b10 /
b0 ,
1$
1#
1'
0&
#61
0$
#62
b1000 !
b1000 *
b1000 1
1$
#63
0$
#64
1$
#65
0$
0#
#66
1$
#67
0$
#68
1$
#69
0$
#70
b11 /
b11000 -
b11000 0
b10 .
1$
1#
#71
0$
#72
b11000 !
b11000 *
b11000 1
1$
#73
0$
#74
1$
#75
0$
0#
#76
1$
#77
0$
#78
1$
#79
0$
#80
b0 /
b111000 -
b111000 0
b11 .
1$
1#
#81
0$
#82
b111000 !
b111000 *
b111000 1
1$
#83
0$
#84
1$
#85
0$
0#
#86
1$
#87
0$
#88
1$
#89
0$
#90
b1 /
b0 -
b0 0
b0 .
1$
1#
#91
0$
#92
b0 !
b0 *
b0 1
1$
#93
0$
#94
1$
#95
0$
0#
#96
1$
#97
0$
#98
1$
#99
0$
#100
b10 /
b1111 -
b1111 0
b1 .
b11 +
b11 ,
1$
1#
1"
#101
0$
#102
b1111 !
b1111 *
b1111 1
1$
#103
0$
#104
1$
#105
0$
0#
#106
1$
#107
0$
#108
1$
#109
0$
#110
b11 /
b11111 -
b11111 0
b10 .
1$
1#
#111
0$
#112
b11111 !
b11111 *
b11111 1
1$
#113
0$
#114
1$
#115
0$
0#
#116
1$
#117
0$
#118
1$
#119
0$
#120
b0 /
b111111 -
b111111 0
b11 .
1$
1#
#121
0$
#122
b111111 !
b111111 *
b111111 1
1$
#123
0$
#124
1$
#125
0$
0#
#126
1$
#127
0$
#128
1$
#129
0$
#130
b1 /
b111 -
b111 0
b0 .
1$
1#
#131
0$
#132
b111 !
b111 *
b111 1
1$
#133
0$
#134
1$
#135
0$
0#
#136
1$
#137
0$
#138
1$
#139
0$
#140
b111000 -
b111000 0
b11 .
b0 +
b11 /
b1 ,
1$
1#
1&
0'
#141
0$
#142
b111000 !
b111000 *
b111000 1
1$
#143
0$
#144
1$
#145
0$
0#
#146
1$
#147
0$
#148
1$
#149
0$
#150
b10 ,
b111100 -
b111100 0
b1 +
1$
1#
#151
0$
#152
b111100 !
b111100 *
b111100 1
1$
#153
0$
#154
1$
#155
0$
0#
#156
1$
#157
0$
#158
1$
#159
0$
#160
b11 ,
b111110 -
b111110 0
b10 +
1$
1#
#161
0$
#162
b111110 !
b111110 *
b111110 1
1$
#163
0$
#164
1$
#165
0$
0#
#166
1$
#167
0$
#168
1$
#169
0$
#170
b0 ,
b111111 -
b111111 0
b11 +
1$
1#
#171
0$
#172
b111111 !
b111111 *
b111111 1
1$
#173
0$
#174
1$
#175
0$
0#
#176
1$
#177
0$
#178
1$
#179
0$
#180
b11 ,
1$
1#
1'
#181
0$
#182
1$
#183
0$
#184
1$
#185
0$
0#
#186
1$
#187
0$
#188
1$
#189
0$
#190
1$
1#
#191
0$
#192
1$
#193
0$
#194
1$
#195
0$
0#
#196
1$
#197
0$
#198
1$
#199
0$
#200
1$
1#
#201
0$
#202
1$
#203
0$
#204
1$
#205
0$
0#
#206
1$
#207
0$
#208
1$
#209
0$
#210
1$
1#
#211
0$
#212
1$
#213
0$
#214
1$
#215
0$
0#
#216
1$
#217
0$
#218
1$
#219
0$
#220
b0 -
b0 0
b0 .
b0 +
b11 /
b11 ,
1$
1#
0"
#221
0$
#222
b0 !
b0 *
b0 1
1$
#223
0$
#224
1$
#225
0$
0#
#226
1$
#227
0$
#228
1$
#229
0$
#230
b0 /
b0 ,
b111111 -
b111111 0
b11 .
b11 +
1$
1#
#231
0$
#232
b111111 !
b111111 *
b111111 1
1$
#233
0$
#234
1$
#235
0$
0#
#236
1$
#237
0$
#238
1$
#239
0$
#240
b11 /
b11 ,
b0 -
b0 0
b0 .
b0 +
1$
1#
#241
0$
#242
b0 !
b0 *
b0 1
1$
#243
0$
#244
1$
#245
0$
0#
#246
1$
#247
0$
#248
1$
#249
0$
#250
b0 /
b0 ,
b111111 -
b111111 0
b11 .
b11 +
1$
1#
#251
0$
#252
b111111 !
b111111 *
b111111 1
1$
#253
0$
#254
1$
#255
0$
0#
#256
1$
#257
0$
#258
1$
#259
0$
#260
b0 -
b0 0
b0 .
b0 +
1$
1#
0&
0'
#261
0$
#262
b0 !
b0 *
b0 1
1$
#263
0$
#264
1$
#265
0$
0#
#266
1$
#267
0$
#268
1$
#269
0$
#270
1$
1#
#271
0$
#272
1$
#273
0$
#274
1$
#275
0$
0#
#276
1$
#277
0$
#278
1$
#279
0$
#280
b111111 -
b111111 0
b11 .
b11 +
b0 /
b0 ,
1$
1#
1%
#281
0$
#282
b111111 !
b111111 *
b111111 1
1$
#283
0$
#284
1$
#285
0$
0#
#286
1$
#287
0$
#288
1$
#289
0$
#290
b11 /
b11 ,
b0 -
b0 0
b0 .
b0 +
1$
1#
#291
0$
#292
b0 !
b0 *
b0 1
1$
#293
0$
#294
1$
#295
0$
0#
#296
1$
#297
0$
#298
1$
#299
0$
#300
b0 /
b0 ,
b111111 -
b111111 0
b11 .
b11 +
1$
1#
#301
0$
#302
b111111 !
b111111 *
b111111 1
1$
#303
0$
#304
1$
#305
0$
0#
#306
1$
#307
0$
#308
1$
#309
0$
#310
b11 /
b11 ,
b0 -
b0 0
b0 .
b0 +
1$
1#
#311
0$
#312
b0 !
b0 *
b0 1
1$
#313
0$
#314
1$
#315
0$
0#
#316
1$
#317
0$
#318
1$
#319
0$
#320
b111111 !
b111111 *
b111111 1
b0 /
b0 ,
1$
1#
1)
0%
#321
0$
#322
b0 !
b0 *
b0 1
1$
#323
0$
#324
b111111 !
b111111 *
b111111 1
1$
#325
0$
0#
#326
b0 !
b0 *
b0 1
1$
#327
0$
#328
b111111 !
b111111 *
b111111 1
1$
#329
0$
#330
b0 !
b0 *
b0 1
1$
1#
#331
0$
#332
b111111 !
b111111 *
b111111 1
1$
#333
0$
#334
b0 !
b0 *
b0 1
1$
#335
0$
0#
#336
b111111 !
b111111 *
b111111 1
1$
#337
0$
#338
b0 !
b0 *
b0 1
1$
#339
0$
#340
b100 -
b100 0
b1 +
b111111 !
b111111 *
b111111 1
b10 ,
1$
1#
1&
#341
0$
#342
b100 !
b100 *
b100 1
1$
#343
0$
#344
b111111 !
b111111 *
b111111 1
1$
#345
0$
0#
#346
b100 !
b100 *
b100 1
1$
#347
0$
#348
b111111 !
b111111 *
b111111 1
1$
#349
0$
#350
b11 ,
b110 -
b110 0
b10 +
b100 !
b100 *
b100 1
1$
1#
#351
0$
#352
b110 !
b110 *
b110 1
1$
#353
0$
#354
b111111 !
b111111 *
b111111 1
1$
#355
0$
0#
#356
b110 !
b110 *
b110 1
1$
#357
0$
#358
b111111 !
b111111 *
b111111 1
1$
#359
0$
#360
b0 ,
b111 -
b111 0
b11 +
b110 !
b110 *
b110 1
1$
1#
#361
0$
#362
b111 !
b111 *
b111 1
1$
#363
0$
#364
b111111 !
b111111 *
b111111 1
1$
#365
0$
0#
#366
b111 !
b111 *
b111 1
1$
#367
0$
#368
b111111 !
b111111 *
b111111 1
1$
#369
0$
#370
b1 ,
b0 -
b0 0
b0 +
b111 !
b111 *
b111 1
1$
1#
#371
0$
#372
b0 !
b0 *
b0 1
1$
#373
0$
#374
b111111 !
b111111 *
b111111 1
1$
#375
0$
0#
#376
b0 !
b0 *
b0 1
1$
#377
0$
#378
b111111 !
b111111 *
b111111 1
1$
#379
0$
#380
b1000 -
b1000 0
b1 .
b0 !
b0 *
b0 1
b10 /
b0 ,
1$
1#
1'
0&
#381
0$
#382
b1000 !
b1000 *
b1000 1
1$
#383
0$
#384
b111111 !
b111111 *
b111111 1
1$
#385
0$
0#
#386
b1000 !
b1000 *
b1000 1
1$
#387
0$
#388
b111111 !
b111111 *
b111111 1
1$
#389
0$
#390
b11 /
b11000 -
b11000 0
b10 .
b1000 !
b1000 *
b1000 1
1$
1#
#391
0$
#392
b11000 !
b11000 *
b11000 1
1$
#393
0$
#394
b111111 !
b111111 *
b111111 1
1$
#395
0$
0#
#396
b11000 !
b11000 *
b11000 1
1$
#397
0$
#398
b111111 !
b111111 *
b111111 1
1$
#399
0$
#400
b0 /
b111000 -
b111000 0
b11 .
b11000 !
b11000 *
b11000 1
1$
1#
#401
0$
#402
b111000 !
b111000 *
b111000 1
1$
#403
0$
#404
b111111 !
b111111 *
b111111 1
1$
#405
0$
0#
#406
b111000 !
b111000 *
b111000 1
1$
#407
0$
#408
b111111 !
b111111 *
b111111 1
1$
#409
0$
#410
b1 /
b0 -
b0 0
b0 .
b111000 !
b111000 *
b111000 1
1$
1#
#411
0$
#412
b0 !
b0 *
b0 1
1$
#413
0$
#414
b111111 !
b111111 *
b111111 1
1$
#415
0$
0#
#416
b0 !
b0 *
b0 1
1$
#417
0$
#418
b111111 !
b111111 *
b111111 1
1$
#419
0$
#420
b10 /
b1111 -
b1111 0
b1 .
b11 +
b0 !
b0 *
b0 1
b11 ,
1$
1#
1"
#421
0$
#422
b1111 !
b1111 *
b1111 1
1$
#423
0$
#424
b111111 !
b111111 *
b111111 1
1$
#425
0$
0#
#426
b1111 !
b1111 *
b1111 1
1$
#427
0$
#428
b111111 !
b111111 *
b111111 1
1$
#429
0$
#430
b11 /
b11111 -
b11111 0
b10 .
b1111 !
b1111 *
b1111 1
1$
1#
#431
0$
#432
b11111 !
b11111 *
b11111 1
1$
#433
0$
#434
b111111 !
b111111 *
b111111 1
1$
#435
0$
0#
#436
b11111 !
b11111 *
b11111 1
1$
#437
0$
#438
b111111 !
b111111 *
b111111 1
1$
#439
0$
#440
b0 /
b111111 -
b111111 0
b11 .
b11111 !
b11111 *
b11111 1
1$
1#
#441
0$
#442
b111111 !
b111111 *
b111111 1
1$
#443
0$
#444
1$
#445
0$
0#
#446
1$
#447
0$
#448
1$
#449
0$
#450
b1 /
b111 -
b111 0
b0 .
1$
1#
#451
0$
#452
b111 !
b111 *
b111 1
1$
#453
0$
#454
b111111 !
b111111 *
b111111 1
1$
#455
0$
0#
#456
b111 !
b111 *
b111 1
1$
#457
0$
#458
b111111 !
b111111 *
b111111 1
1$
#459
0$
#460
b111000 -
b111000 0
b11 .
b0 +
b111 !
b111 *
b111 1
b11 /
b1 ,
1$
1#
1&
0'
#461
0$
#462
b111000 !
b111000 *
b111000 1
1$
#463
0$
#464
b111111 !
b111111 *
b111111 1
1$
#465
0$
0#
#466
b111000 !
b111000 *
b111000 1
1$
#467
0$
#468
b111111 !
b111111 *
b111111 1
1$
#469
0$
#470
b10 ,
b111100 -
b111100 0
b1 +
b111000 !
b111000 *
b111000 1
1$
1#
#471
0$
#472
b111100 !
b111100 *
b111100 1
1$
#473
0$
#474
b111111 !
b111111 *
b111111 1
1$
#475
0$
0#
#476
b111100 !
b111100 *
b111100 1
1$
#477
0$
#478
b111111 !
b111111 *
b111111 1
1$
#479
0$
#480
b11 ,
b111110 -
b111110 0
b10 +
b111100 !
b111100 *
b111100 1
1$
1#
#481
0$
#482
b111110 !
b111110 *
b111110 1
1$
#483
0$
#484
b111111 !
b111111 *
b111111 1
1$
#485
0$
0#
#486
b111110 !
b111110 *
b111110 1
1$
#487
0$
#488
b111111 !
b111111 *
b111111 1
1$
#489
0$
#490
b0 ,
b111111 -
b111111 0
b11 +
b111110 !
b111110 *
b111110 1
1$
1#
#491
0$
#492
b111111 !
b111111 *
b111111 1
1$
#493
0$
#494
1$
#495
0$
0#
#496
1$
#497
0$
#498
1$
#499
0$
#500
b11 ,
1$
1#
1'
#501
0$
#502
1$
#503
0$
#504
1$
#505
0$
0#
#506
1$
#507
0$
#508
1$
#509
0$
#510
1$
1#
#511
0$
#512
1$
#513
0$
#514
1$
#515
0$
0#
#516
1$
#517
0$
#518
1$
#519
0$
#520
1$
1#
#521
0$
#522
1$
#523
0$
#524
1$
#525
0$
0#
#526
1$
#527
0$
#528
1$
#529
0$
#530
1$
1#
#531
0$
#532
1$
#533
0$
#534
1$
#535
0$
0#
#536
1$
#537
0$
#538
1$
#539
0$
#540
b0 -
b0 0
b0 .
b0 +
b11 /
b11 ,
1$
1#
0"
#541
0$
#542
b0 !
b0 *
b0 1
1$
#543
0$
#544
b111111 !
b111111 *
b111111 1
1$
#545
0$
0#
#546
b0 !
b0 *
b0 1
1$
#547
0$
#548
b111111 !
b111111 *
b111111 1
1$
#549
0$
#550
b0 /
b0 ,
b111111 -
b111111 0
b11 .
b11 +
b0 !
b0 *
b0 1
1$
1#
#551
0$
#552
b111111 !
b111111 *
b111111 1
1$
#553
0$
#554
1$
#555
0$
0#
#556
1$
#557
0$
#558
1$
#559
0$
#560
b11 /
b11 ,
b0 -
b0 0
b0 .
b0 +
1$
1#
#561
0$
#562
b0 !
b0 *
b0 1
1$
#563
0$
#564
b111111 !
b111111 *
b111111 1
1$
#565
0$
0#
#566
b0 !
b0 *
b0 1
1$
#567
0$
#568
b111111 !
b111111 *
b111111 1
1$
#569
0$
#570
b0 /
b0 ,
b111111 -
b111111 0
b11 .
b11 +
b0 !
b0 *
b0 1
1$
1#
#571
0$
#572
b111111 !
b111111 *
b111111 1
1$
#573
0$
#574
1$
#575
0$
0#
#576
1$
#577
0$
#578
1$
#579
0$
#580
b0 -
b0 0
b0 .
b0 +
1$
1#
0&
0'
#581
0$
#582
b0 !
b0 *
b0 1
1$
#583
0$
#584
b111111 !
b111111 *
b111111 1
1$
#585
0$
0#
#586
b0 !
b0 *
b0 1
1$
#587
0$
#588
b111111 !
b111111 *
b111111 1
1$
#589
0$
#590
b0 !
b0 *
b0 1
1$
1#
#591
0$
#592
b111111 !
b111111 *
b111111 1
1$
#593
0$
#594
b0 !
b0 *
b0 1
1$
#595
0$
0#
#596
b111111 !
b111111 *
b111111 1
1$
#597
0$
#598
b0 !
b0 *
b0 1
1$
#599
0$
#600
b111111 -
b111111 0
b11 .
b11 +
b111111 !
b111111 *
b111111 1
b0 /
b0 ,
1$
1#
1%
#601
0$
#602
1$
#603
0$
#604
1$
#605
0$
0#
#606
1$
#607
0$
#608
1$
#609
0$
#610
b11 /
b11 ,
b0 -
b0 0
b0 .
b0 +
1$
1#
#611
0$
#612
b0 !
b0 *
b0 1
1$
#613
0$
#614
b111111 !
b111111 *
b111111 1
1$
#615
0$
0#
#616
b0 !
b0 *
b0 1
1$
#617
0$
#618
b111111 !
b111111 *
b111111 1
1$
#619
0$
#620
b0 /
b0 ,
b111111 -
b111111 0
b11 .
b11 +
b0 !
b0 *
b0 1
1$
1#
#621
0$
#622
b111111 !
b111111 *
b111111 1
1$
#623
0$
#624
1$
#625
0$
0#
#626
1$
#627
0$
#628
1$
#629
0$
#630
b11 /
b11 ,
b0 -
b0 0
b0 .
b0 +
1$
1#
#631
0$
#632
b0 !
b0 *
b0 1
1$
#633
0$
#634
b111111 !
b111111 *
b111111 1
1$
#635
0$
0#
#636
b0 !
b0 *
b0 1
1$
#637
0$
#638
b111111 !
b111111 *
b111111 1
1$
#639
0$
#640
b0 /
b0 ,
b111111 -
b111111 0
b11 .
b11 +
b0 !
b0 *
b0 1
1$
1#
